Assignment 5 - K-means
…
ℹ Use `spec()` to retrieve the full column specification for this data.
ℹ Specify the column types or set `show_col_types = FALSE` to quiet this message.

Code

weather_norm <- weather %>% 
 dplyr:: select(-year, -site, -strength_gtex) %>%
  mutate(across(everything(), ~scale(.x)))

weather_norm

# A tibble: 698 × 72
   mean_dayl.s_Jan[,1] mean_srad.wm2_Jan[,1] mean_tmax.c_Jan[,1]
                 <dbl>                 <dbl>               <dbl>
 1             -0.699                 -0.962            -0.904  
 2             -0.905                 -1.96             -1.15   
 3              0.0762                 0.365            -0.116  
 4              0.174                 -1.07              0.00684
 5              1.89                   0.285             1.48   
 6             -0.699                 -1.64             -1.03   
 7              0.222                 -1.73             -0.166  
 8             -0.879                 -0.905            -1.08   
 9             -1.01                  -0.151            -1.99   
10              1.00                  -0.544             0.475  
# ℹ 688 more rows
# ℹ 69 more variables: mean_tmin.c_Jan <dbl[,1]>, mean_vp.pa_Jan <dbl[,1]>,
#   sum_prcp.mm_Jan <dbl[,1]>, mean_dayl.s_Feb <dbl[,1]>,
#   mean_srad.wm2_Feb <dbl[,1]>, mean_tmax.c_Feb <dbl[,1]>,
#   mean_tmin.c_Feb <dbl[,1]>, mean_vp.pa_Feb <dbl[,1]>,
#   sum_prcp.mm_Feb <dbl[,1]>, mean_dayl.s_Mar <dbl[,1]>,
#   mean_srad.wm2_Mar <dbl[,1]>, mean_tmax.c_Mar <dbl[,1]>, …
…
